[
   {
      "name":"HP Pavilion Gaming",
      "price":24999,
      "url":"https://content1.rozetka.com.ua/goods/images/big_tile/247214371.jpg",
      "article":1,
      "color":"red"
   },
   {
      "name":"ASUS Laptop ",
      "price":15999,
      "url":"https://content.rozetka.com.ua/goods/images/big_tile/238637374.jpg",
      "article":2,
      "color":"red"
   },
   {
      "name":"Lenovo IdeaPad 3 ",
      "price":16999,
      "url":"https://content1.rozetka.com.ua/goods/images/big_tile/178046135.jpg",
      "article":3,
      "color":"blue"
   },
   {
      "name":"Apple MacBook Air 13",
      "price":33999,
      "url":"https://content1.rozetka.com.ua/goods/images/big_tile/144249735.jpg",
      "article":4,
      "color":"blue"
   },
   {
      "name":"Ноутбук Acer Swift 1 ",
      "price":13999,
      "url":"https://content.rozetka.com.ua/goods/images/big_tile/163403142.jpg",
      "article":5,
      "color":"yellow"
   },
   {
      "name":"Ноутбук Lenovo V17 G2 ITL ",
      "price":12999,
      "url":"https://content.rozetka.com.ua/goods/images/big_tile/206724555.jpg",
      "article":6,
      "color":"yellow"
   },
   {
      "name":"Ноутбук ASUS TUF Gaming F15",
      "price":28499,
      "url":"https://content.rozetka.com.ua/goods/images/big_tile/238662392.jpg",
      "article":7,
      "color":"black"
   },
   {
      "name":"оутбук Lenovo IdeaPad 3",
      "price":12299,
      "url":"https://content.rozetka.com.ua/goods/images/big_tile/232111829.jpg",
      "article":8,
      "color":"black"
   },
   {
      "name":"Ноутбук Acer Swift 1 ",
      "price":12777,
      "url":"https://content1.rozetka.com.ua/goods/images/big_tile/231887317.jpg",
      "article":9,
      "color":"white"
   },
   {
      "name":"ASUS TUF Gaming F15",
      "price":32999,
      "url":"https://content2.rozetka.com.ua/goods/images/big_tile/238664319.jpg",
      "article":10,
      "color":"white"
   }
]